Putting the R in Reed and in Lewis and ClaRk
…
# Day 2

## Data Wrangling

---

### `gapminder` data frame in the `gapminder` package

```r
library(gapminder)
gapminder
```

```
# A tibble: 1,704 x 6
       country continent  year lifeExp      pop gdpPercap
        <fctr>    <fctr> <int>   <dbl>    <int>     <dbl>
 1 Afghanistan      Asia  1952  28.801  8425333  779.4453
 2 Afghanistan      Asia  1957  30.332  9240934  820.8530
 3 Afghanistan      Asia  1962  31.997 10267083  853.1007
 4 Afghanistan      Asia  1967  34.020 11537966  836.1971
 5 Afghanistan      Asia  1972  36.088 13079460  739.9811
 6 Afghanistan      Asia  1977  38.438 14880372  786.1134
 7 Afghanistan      Asia  1982  39.854 12881816  978.0114
 8 Afghanistan      Asia  1987  40.822 13867957  852.3959
 9 Afghanistan      Asia  1992  41.674 16317921  649.3414
10 Afghanistan      Asia  1997  41.763 22227415  635.3414
# ... with 1,694 more rows
```
…
---

## Logical operators

- Use `|` to check for any in multiple filters being true:
--

```r
gapminder %>% 
  filter(year == 2002 | continent == "Europe")
```
--

```
# A tibble: 472 x 6
       country continent  year lifeExp      pop gdpPercap
        <fctr>    <fctr> <int>   <dbl>    <int>     <dbl>
 1 Afghanistan      Asia  2002  42.129 25268405  726.7341
 2     Albania    Europe  1952  55.230  1282697 1601.0561
 3     Albania    Europe  1957  59.280  1476505 1942.2842
 4     Albania    Europe  1962  64.820  1728137 2312.8890
 5     Albania    Europe  1967  66.220  1984060 2760.1969
 6     Albania    Europe  1972  67.690  2263554 3313.4222
 7     Albania    Europe  1977  68.930  2509048 3533.0039
 8     Albania    Europe  1982  70.420  2780097 3630.8807
 9     Albania    Europe  1987  72.000  3075321 3738.9327
10     Albania    Europe  1992  71.581  3326498 2497.4379
# ... with 462 more rows
```

---

## Logical operators

- Use `&` or `,` to check for all of multiple filters being true:
--

```r
gapminder %>% 
  filter(year == 2002, continent == "Europe")
```

```
# A tibble: 30 x 6
                  country continent  year lifeExp      pop gdpPercap
                   <fctr>    <fctr> <int>   <dbl>    <int>     <dbl>
 1                Albania    Europe  2002  75.651  3508512  4604.212
 2                Austria    Europe  2002  78.980  8148312 32417.608
 3                Belgium    Europe  2002  78.320 10311970 30485.884
 4 Bosnia and Herzegovina    Europe  2002  74.090  4165416  6018.975
 5               Bulgaria    Europe  2002  72.140  7661799  7696.778
 6                Croatia    Europe  2002  74.876  4481020 11628.389
 7         Czech Republic    Europe  2002  75.510 10256295 17596.210
 8                Denmark    Europe  2002  77.180  5374693 32166.500
 9                Finland    Europe  2002  78.370  5193039 28204.591
10                 France    Europe  2002  79.590 59925035 28926.032
# ... with 20 more rows
```
…
---

## `arrange()`

- Reorders the rows in a data frame based on the values of one or more variables
--

```r
gapminder %>%
  arrange(year, country)
```

```
# A tibble: 1,704 x 6
       country continent  year lifeExp      pop  gdpPercap
        <fctr>    <fctr> <int>   <dbl>    <int>      <dbl>
 1 Afghanistan      Asia  1952  28.801  8425333   779.4453
 2     Albania    Europe  1952  55.230  1282697  1601.0561
 3     Algeria    Africa  1952  43.077  9279525  2449.0082
 4      Angola    Africa  1952  30.015  4232095  3520.6103
 5   Argentina  Americas  1952  62.485 17876956  5911.3151
 6   Australia   Oceania  1952  69.120  8691212 10039.5956
 7     Austria    Europe  1952  66.800  6927772  6137.0765
 8     Bahrain      Asia  1952  50.939   120447  9867.0848
 9  Bangladesh      Asia  1952  37.484 46886859   684.2442
10     Belgium    Europe  1952  68.000  8730405  8343.1051
# ... with 1,694 more rows
```
---

## `arrange()`

- Can also put into descending order
--

```r
gapminder %>%
  filter(year > 2000) %>%
  arrange(desc(lifeExp))
```

```
# A tibble: 284 x 6
            country continent  year lifeExp       pop gdpPercap
             <fctr>    <fctr> <int>   <dbl>     <int>     <dbl>
 1            Japan      Asia  2007  82.603 127467972  31656.07
 2 Hong Kong, China      Asia  2007  82.208   6980412  39724.98
 3            Japan      Asia  2002  82.000 127065841  28604.59
 4          Iceland    Europe  2007  81.757    301931  36180.79
 5      Switzerland    Europe  2007  81.701   7554661  37506.42
 6 Hong Kong, China      Asia  2002  81.495   6762476  30209.02
 7        Australia   Oceania  2007  81.235  20434176  34435.37
 8            Spain    Europe  2007  80.941  40448191  28821.06
 9           Sweden    Europe  2007  80.884   9031088  33859.75
10           Israel      Asia  2007  80.745   6426679  25523.28
# ... with 274 more rows
```
…
---

## Don't mix up `arrange` and `group_by`

This doesn't really do anything useful

```r
gapminder %>% group_by(year)
```

```
Source: local data frame [1,704 x 6]
Groups: year [12]

# A tibble: 1,704 x 6
       country continent  year lifeExp      pop gdpPercap
        <fctr>    <fctr> <int>   <dbl>    <int>     <dbl>
 1 Afghanistan      Asia  1952  28.801  8425333  779.4453
 2 Afghanistan      Asia  1957  30.332  9240934  820.8530
 3 Afghanistan      Asia  1962  31.997 10267083  853.1007
 4 Afghanistan      Asia  1967  34.020 11537966  836.1971
 5 Afghanistan      Asia  1972  36.088 13079460  739.9811
 6 Afghanistan      Asia  1977  38.438 14880372  786.1134
 7 Afghanistan      Asia  1982  39.854 12881816  978.0114
 8 Afghanistan      Asia  1987  40.822 13867957  852.3959
 9 Afghanistan      Asia  1992  41.674 16317921  649.3414
10 Afghanistan      Asia  1997  41.763 22227415  635.3414
# ... with 1,694 more rows
```

---

## Don't mix up `arrange` and `group_by`

But this does

```r
gapminder %>% arrange(year)
```

```
# A tibble: 1,704 x 6
       country continent  year lifeExp      pop  gdpPercap
        <fctr>    <fctr> <int>   <dbl>    <int>      <dbl>
 1 Afghanistan      Asia  1952  28.801  8425333   779.4453
 2     Albania    Europe  1952  55.230  1282697  1601.0561
 3     Algeria    Africa  1952  43.077  9279525  2449.0082
 4      Angola    Africa  1952  30.015  4232095  3520.6103
 5   Argentina  Americas  1952  62.485 17876956  5911.3151
 6   Australia   Oceania  1952  69.120  8691212 10039.5956
 7     Austria    Europe  1952  66.800  6927772  6137.0765
 8     Bahrain      Asia  1952  50.939   120447  9867.0848
 9  Bangladesh      Asia  1952  37.484 46886859   684.2442
10     Belgium    Europe  1952  68.000  8730405  8343.1051
# ... with 1,694 more rows
```
…
### Does cost of living in a state relate to whether police officers live in the cities they patrol?  What about state political ideology?

```r
library(fivethirtyeight); library(readr); library(dplyr)
police2 <- police_locals %>% select(city, all)
ideology <- read_csv("https://ismayc.github.io/Effective-Data-Storytelling-using-the-tidyverse/datasets/ideology.csv")
police_join <- inner_join(x = police2, y = ideology, by = "city")
police_join
```

--

```
# A tibble: 75 x 4
           city       all                state state_ideology
          <chr>     <dbl>                <chr>          <chr>
 1     New York 0.6179567             New York        Liberal
 2      Chicago 0.8750000             Illinois        Liberal
 3  Los Angeles 0.2282178           California        Liberal
 4   Washington 0.1156317 District of Columbia        Liberal
 5      Houston 0.2922078                Texas   Conservative
 6 Philadelphia 0.8354012         Pennsylvania   Conservative
 7      Phoenix 0.3117318              Arizona   Conservative
 8    San Diego 0.3621076           California        Liberal
 9       Dallas 0.1914008                Texas   Conservative
10      Detroit 0.3705972             Michigan   Conservative
# ... with 65 more rows
```
…
```r
url <- paste0("https://ismayc.github.io/",
              "Effective-Data-Storytelling-using-the-tidyverse/",
              "datasets/cost_of_living.csv")
cost_of_living <- read_csv(url)
police_join_cost <- inner_join(
    x = police_join, 
    y = cost_of_living, 
    by = "state"
  )
police_join_cost %>% select(-state) %>% arrange(city)
```

```
# A tibble: 75 x 5
                 city       all state_ideology index col_group
                <chr>     <dbl>          <chr> <dbl>     <chr>
 1       Albany, N.Y. 0.1853933        Liberal 131.0      high
 2  Albuquerque, N.M. 0.6156716        Liberal  96.5       mid
 3     Arlington, Va. 0.2022059        Liberal 100.8       mid
 4            Atlanta 0.1372881   Conservative  91.4       low
 5      Austin, Texas 0.2947103   Conservative  90.7       low
 6          Baltimore 0.2571429        Liberal 125.5      high
 7   Baton Rouge, La. 0.2142857   Conservative  94.8       low
 8   Birmingham, Ala. 0.2252252   Conservative  91.2       low
 9             Boston 0.4765625        Liberal 133.4      high
10 Brownsville, Texas 0.5135135   Conservative  90.7       low
# ... with 65 more rows
```
…
---

## Doing the "tidying"/reshaping

```r
library(tidyr)
library(dplyr)
(life_exp_tidy <- life_exp_df %>% 
    gather(key = "year", value = "life_exp", -country))
```

```
# A tibble: 13,332 x 3
               country  year life_exp
                 <chr> <chr>    <dbl>
 1         Afghanistan  1951    27.13
 2             Albania  1951    54.72
 3             Algeria  1951    43.03
 4              Angola  1951    31.05
 5 Antigua and Barbuda  1951    58.26
 6           Argentina  1951    61.93
 7             Armenia  1951    62.67
 8               Aruba  1951    58.96
 9           Australia  1951    68.71
10             Austria  1951    65.24
# ... with 13,322 more rows
```
…
---

## Pulling apart variables

The entry `new_sp_m014` is actually four different variables.  Use the `separate` function to pull them apart:

```r
who_tidy <- who_tidy %>% 
  separate(col = key, into = c("new", "type", "sexage"), sep = "_")
who_tidy
```

```
# A tibble: 405,440 x 8
       country  iso2  iso3  year   new  type sexage value
 *       <chr> <chr> <chr> <dbl> <chr> <chr>  <chr> <dbl>
 1 Afghanistan    AF   AFG  1980   new    sp   m014   NaN
 2 Afghanistan    AF   AFG  1981   new    sp   m014   NaN
 3 Afghanistan    AF   AFG  1982   new    sp   m014   NaN
 4 Afghanistan    AF   AFG  1983   new    sp   m014   NaN
 5 Afghanistan    AF   AFG  1984   new    sp   m014   NaN
 6 Afghanistan    AF   AFG  1985   new    sp   m014   NaN
 7 Afghanistan    AF   AFG  1986   new    sp   m014   NaN
 8 Afghanistan    AF   AFG  1987   new    sp   m014   NaN
 9 Afghanistan    AF   AFG  1988   new    sp   m014   NaN
10 Afghanistan    AF   AFG  1989   new    sp   m014   NaN
# ... with 405,430 more rows
```

---

## One more pull apart

- We need to pull `sexage` into two different variables.  
- If you use `?separate`, you'll see that the following is an option:

```r
(who_tidy <- who_tidy %>% 
  separate(col = sexage, into = c("sex", "age"), sep = 1))
```

```
# A tibble: 405,440 x 9
       country  iso2  iso3  year   new  type   sex   age value
 *       <chr> <chr> <chr> <dbl> <chr> <chr> <chr> <chr> <dbl>
 1 Afghanistan    AF   AFG  1980   new    sp     m   014   NaN
 2 Afghanistan    AF   AFG  1981   new    sp     m   014   NaN
 3 Afghanistan    AF   AFG  1982   new    sp     m   014   NaN
 4 Afghanistan    AF   AFG  1983   new    sp     m   014   NaN
 5 Afghanistan    AF   AFG  1984   new    sp     m   014   NaN
 6 Afghanistan    AF   AFG  1985   new    sp     m   014   NaN
 7 Afghanistan    AF   AFG  1986   new    sp     m   014   NaN
 8 Afghanistan    AF   AFG  1987   new    sp     m   014   NaN
 9 Afghanistan    AF   AFG  1988   new    sp     m   014   NaN
10 Afghanistan    AF   AFG  1989   new    sp     m   014   NaN
# ... with 405,430 more rows
```
…
